^C:\USERS\300047514\SOURCE\REPOS\CW.DEMO2\CW.DEMO2\DEBUG\MAIN.OBJ
C:\USERS\300047514\SOURCE\REPOS\CW.DEMO2\DEBUG\CW.DEMO2.ILK
C:\USERS\300047514\SOURCE\REPOS\CW.DEMO2\DEBUG\CW.DEMO2.EXE
C:\USERS\300047514\SOURCE\REPOS\CW.DEMO2\DEBUG\CW.DEMO2.PDB
